…
    ## # Overdispersion test
    ## 
    ##        dispersion ratio =  0.659
    ##   Pearson's Chi-Squared = 12.519
    ##                 p-value =  0.862

    ## No overdispersion detected.

``` r
augment(amf_rich_glm_i) # corn site has cooks >0.9
```

    ## # A tibble: 25 × 9
    ##    richness depth_csq field_type .fitted   .resid   .hat .sigma    .cooksd .std.resid
    ##       <int>     <dbl> <fct>        <dbl>    <dbl>  <dbl>  <dbl>      <dbl>      <dbl>
    ##  1       59   -10.3   restored      4.00  0.573   0.232   0.824 0.0221        0.654  
    ##  2       47     9.30  restored      3.94 -0.624   0.171   0.823 0.0157       -0.685  
    ##  3       38    -0.862 corn          3.69 -0.357   0.214   0.833 0.00722      -0.403  
    ##  4       52     3.80  remnant       4.03 -0.577   0.366   0.821 0.0491       -0.724  
    ##  5       53     8.24  restored      3.94  0.197   0.147   0.837 0.00131       0.213  
    ##  6       60     3.69  corn          3.91  1.39    0.547   0.683 0.914         2.06   
    ##  7       33    -4.72  corn          3.51 -0.0975  0.560   0.838 0.00457      -0.147  
    ##  8       62     6.11  remnant       4.06  0.560   0.500   0.817 0.107         0.792  
    ##  9       53     1.52  restored      3.96  0.0425  0.0642  0.838 0.0000221     0.0439 
    ## 10       54    -5.89  restored      3.99  0.00740 0.120   0.838 0.00000142    0.00789
    ## # ℹ 15 more rows
…
    ## No overdispersion detected.

``` r
augment(sapro_rich_glm_i) # corn site has cooks >0.9
```

    ## Warning: The `augment()` method for objects of class `negbin` is not maintained by the broom team, and is only supported through the `glm` tidier method. Please be cautious in interpreting and reporting broom output.
    ## 
    ## This warning is displayed once per session.

    ## # A tibble: 25 × 9
    ##    richness depth_csq field_type .fitted  .resid   .hat .sigma  .cooksd .std.resid
    ##       <int>     <dbl> <fct>        <dbl>   <dbl>  <dbl>  <dbl>    <dbl>      <dbl>
    ##  1      100    -7.23  restored      4.64 -0.306  0.339    1.16 0.0119      -0.376 
    ##  2      145     0.850 restored      4.82  1.76   0.0821   1.09 0.0533       1.83  
    ##  3      118    -0.233 corn          4.83 -0.622  0.776    1.13 0.972       -1.31  
    ##  4       96   -15.2   remnant       4.56  0.0285 0.615    1.17 0.000564     0.0460
    ##  5      106    -4.15  restored      4.71 -0.415  0.144    1.16 0.00553     -0.448 
    ##  6       93    12.5   corn          4.64 -1.05   0.392    1.12 0.186       -1.34  
    ##  7      106     8.88  corn          4.70 -0.333  0.214    1.16 0.00633     -0.376 
    ##  8      120    -7.19  remnant       4.75  0.382  0.260    1.16 0.0118       0.445 
    ##  9      111    -3.14  restored      4.73 -0.187  0.103    1.17 0.000747    -0.198 
    ## 10      116    -6.67  restored      4.65  1.04   0.296    1.13 0.113        1.24  
    ## # ℹ 15 more rows
…
``` r
patho_gf_specor$ranked %>% 
  left_join(its_meta %>% 
              select(-otu_ID, -phylum, -primary_lifestyle), 
            by = join_by(otu == otu_num)) %>% 
  mutate(across(where(is.numeric), ~ round(.x, 3))) %>% 
  as_tibble()
```

    ## # A tibble: 153 × 14
    ##    otu     cov_est cov_se cov_t cov_p cov_q    rho rho_p rho_q class           order         family               genus            species                  
    ##    <chr>     <dbl>  <dbl> <dbl> <dbl> <dbl>  <dbl> <dbl> <dbl> <chr>           <chr>         <chr>                <chr>            <chr>                    
    ##  1 otu_68     6.66   1.90  3.52 0.005 0.301  0.64  0.023 0.451 Dothideomycetes Pleosporales  Phaeosphaeriaceae    Paraphoma        unidentified             
    ##  2 otu_65     5.97   1.82  3.30 0.008 0.325  0.613 0.034 0.466 Sordariomycetes Hypocreales   Nectriaceae          Gibberella       Gibberella_baccata       
    ##  3 otu_332    9.94   3.34  3.02 0.019 0.42   0.465 0.117 0.612 Sordariomycetes Glomerellales Plectosphaerellaceae Plectosphaerella unidentified             
    ##  4 otu_391    9.35   3.31  2.99 0.035 0.48   0.679 0.019 0.394 Dothideomycetes Pleosporales  Torulaceae           Dendryphion      unidentified             
    ##  5 otu_315   11.9    4.21  2.95 0.034 0.481  0.594 0.045 0.488 Sordariomycetes Glomerellales Glomerellaceae       Colletotrichum   unidentified             
    ##  6 otu_559    8.21   3.61  2.36 0.071 0.652  0.473 0.12  0.601 Sordariomycetes Glomerellales Glomerellaceae       Colletotrichum   unidentified             
    ##  7 otu_21     8.42   4.12  2.11 0.076 0.75   0.64  0.023 0.448 Dothideomycetes Pleosporales  Phaeosphaeriaceae    Setophoma        Setophoma_terrestris     
    ##  8 otu_408    7.69   4.14  1.98 0.147 0.761  0.455 0.172 0.607 Dothideomycetes Pleosporales  Leptosphaeriaceae    Leptosphaeria    Leptosphaeria_sclerotioi…
    ##  9 otu_289    9.81   4.95  2.03 0.096 0.765  0.37  0.231 0.687 Sordariomycetes Glomerellales Plectosphaerellaceae Plectosphaerella Plectosphaerella_cucumer…
    ## 10 otu_200   -9.79   4.04 -2.55 0.057 0.809 -0.521 0.115 0.552 Dothideomycetes Pleosporales  Phaeosphaeriaceae    Ophiosphaerella  unidentified             
    ## # ℹ 143 more rows
…
``` r
sapro_rich_specor$ranked %>% 
  left_join(its_meta %>% 
              select(-otu_ID, -phylum, -primary_lifestyle), 
            by = join_by(otu == otu_num)) %>% 
  mutate(across(where(is.numeric), ~ round(.x, 3))) %>% 
  as_tibble()
```

    ## # A tibble: 564 × 14
    ##    otu      cov_est cov_se cov_t cov_p cov_q    rho rho_p rho_q class              order          family             genus             species              
    ##    <chr>      <dbl>  <dbl> <dbl> <dbl> <dbl>  <dbl> <dbl> <dbl> <chr>              <chr>          <chr>              <chr>             <chr>                
    ##  1 otu_703    0.238  0.079  3.21 0.024 0.79   0.757 0.005 0.393 Dothideomycetes    Pleosporales   Didymosphaeriaceae Paraphaeosphaeria unidentified         
    ##  2 otu_195   -0.311  0.095 -3.38 0.014 0.84  -0.733 0.009 0.439 Mortierellomycetes Mortierellales Mortierellaceae    Mortierella       unidentified         
    ##  3 otu_1373   0.155  0.092  1.87 0.184 0.939  0.405 0.249 0.838 Leotiomycetes      Helotiales     Hyaloscyphaceae    Clathrosphaerina  Clathrosphaerina_zal…
    ##  4 otu_586    0.14   0.083  1.84 0.195 0.943  0.42  0.242 0.828 Agaricomycetes     Agaricales     Clavariaceae       Clavaria          unidentified         
    ##  5 otu_47    -0.326  0.124 -2.72 0.037 0.95  -0.58  0.06  0.698 Geoglossomycetes   Geoglossales   Geoglossaceae      Geoglossum        unidentified         
    ##  6 otu_180   -0.202  0.097 -2.21 0.104 0.958 -0.231 0.431 0.906 Geoglossomycetes   Geoglossales   Geoglossaceae      Leucoglossum      unidentified         
    ##  7 otu_885    0.138  0.089  1.70 0.214 0.962  0.392 0.266 0.848 Mortierellomycetes Mortierellales Mortierellaceae    Mortierella       Mortierella_globulif…
    ##  8 otu_1383   0.14   0.086  1.76 0.198 0.962  0.404 0.248 0.846 Geoglossomycetes   Geoglossales   Geoglossaceae      Geoglossum        unidentified         
    ##  9 otu_572    0.188  0.092  2.12 0.088 0.963  0.557 0.058 0.754 Sordariomycetes    Coniochaetales Coniochaetaceae    Coniochaeta       Coniochaeta_decumbens
    ## 10 otu_1401   0.122  0.084  1.60 0.253 0.964  0.398 0.26  0.842 Sordariomycetes    Hypocreales    Stachybotryaceae   Myxospora         unidentified         
    ## # ℹ 554 more rows
…
